%YAML 1.1
%TAG !u! tag:unity3d.com,2011:
--- !u!1045 &1
EditorBuildSettings:
  m_ObjectHideFlags: 0
  serializedVersion: 2
  m_Scenes:
  - enabled: 1
    path: Assets/Scenes/Inside.unity
    guid: 44db2ad064527394db49cc171c99ac75
  - enabled: 1
    path: Assets/Scenes/Outside.unity
    guid: 15bcdee72cefabe43ba0d3c59750afeb
  m_configObjects: {}
